{
  "$schema": "https://github.com/fastfetch-cli/fastfetch/raw/dev/doc/json_schema.json",
  "display": {
    "percentType": 3
  },
  "modules": [
    "os",
    "kernel",
    "packages",
    "display",
    "de",
    "wm",
    "wmtheme",
    "theme",
    "icons",
    "font",
    "cursor",
    "terminal",
    "terminalfont",
    "cpu",
    "gpu",
    "memory",
    "disk",
    "battery",
    "poweradapter",
    "locale"
  ]
}
